{
  "accessors": [
    {
      "name": "legs_004_01_1_0_positions",
      "componentType": 5126,
      "count": 400,
      "min": [
        -0.22737400233745575,
        0.001155999954789877,
        -0.2564379870891571
      ],
      "max": [
        0.23022200167179108,
        0.013438000343739986,
        0.14279399812221527
      ],
      "type": "VEC3",
      "bufferView": 0,
      "byteOffset": 0
    },
    {
      "name": "legs_004_01_1_0_normals",
      "componentType": 5126,
      "count": 400,
      "min": [
        -0.7367678284645081,
        -0.9999998807907104,
        -0.733586311340332
      ],
      "max": [
        0.7367659211158752,
        0.9999998807907104,
        0.733586311340332
      ],
      "type": "VEC3",
      "bufferView": 1,
      "byteOffset": 0
    },
    {
      "name": "legs_004_01_1_0_texcoords",
      "componentType": 5126,
      "count": 400,
      "min": [
        -0.08333300054073334,
        0.9925000071525574
      ],
      "max": [
        0.9166669845581055,
        1
      ],
      "type": "VEC2",
      "bufferView": 2,
      "byteOffset": 0
    },
    {
      "name": "legs_004_01_1_0_indices",
      "componentType": 5123,
      "count": 1728,
      "min": [
        0
      ],
      "max": [
        399
      ],
      "type": "SCALAR",
      "bufferView": 3,
      "byteOffset": 0
    },
    {
      "name": "chair_005_1_0_positions",
      "componentType": 5126,
      "count": 6457,
      "min": [
        -0.23732399940490723,
        0.3776159882545471,
        -0.2644990086555481
      ],
      "max": [
        0.23732399940490723,
        0.8537859916687012,
        0.2595149874687195
      ],
      "type": "VEC3",
      "bufferView": 0,
      "byteOffset": 4800
    },
    {
      "name": "chair_005_1_0_normals",
      "componentType": 5126,
      "count": 6457,
      "min": [
        -0.9999257326126099,
        -0.32711994647979736,
        -1
      ],
      "max": [
        0.9999474883079529,
        0.9999639987945557,
        0.9978964924812317
      ],
      "type": "VEC3",
      "bufferView": 1,
      "byteOffset": 4800
    },
    {
      "name": "chair_005_1_0_texcoords",
      "componentType": 5126,
      "count": 6457,
      "min": [
        0.00010099999781232327,
        -0.06408099830150604
      ],
      "max": [
        0.9998970031738281,
        1.06427001953125
      ],
      "type": "VEC2",
      "bufferView": 2,
      "byteOffset": 3200
    },
    {
      "name": "chair_005_1_0_indices",
      "componentType": 5123,
      "count": 34752,
      "min": [
        0
      ],
      "max": [
        6456
      ],
      "type": "SCALAR",
      "bufferView": 3,
      "byteOffset": 3456
    },
    {
      "name": "legs_005_1_0_positions",
      "componentType": 5126,
      "count": 6923,
      "min": [
        -0.22937999665737152,
        0.013438000343739986,
        -0.25998198986053467
      ],
      "max": [
        0.23232300579547882,
        0.8950960040092468,
        0.2644990086555481
      ],
      "type": "VEC3",
      "bufferView": 0,
      "byteOffset": 82284
    },
    {
      "name": "legs_005_1_0_normals",
      "componentType": 5126,
      "count": 6923,
      "min": [
        -0.9999998807907104,
        -0.9998274445533752,
        -0.9999982118606567
      ],
      "max": [
        0.9999998807907104,
        0.9998235106468201,
        0.9999982714653015
      ],
      "type": "VEC3",
      "bufferView": 1,
      "byteOffset": 82284
    },
    {
      "name": "legs_005_1_0_texcoords",
      "componentType": 5126,
      "count": 6923,
      "min": [
        -0.5656530261039734,
        -0.07539299875497818
      ],
      "max": [
        1.5656529664993286,
        1.0753940343856812
      ],
      "type": "VEC2",
      "bufferView": 2,
      "byteOffset": 54856
    },
    {
      "name": "legs_005_1_0_indices",
      "componentType": 5123,
      "count": 37584,
      "min": [
        0
      ],
      "max": [
        6922
      ],
      "type": "SCALAR",
      "bufferView": 3,
      "byteOffset": 72960
    }
  ],
  "asset": {
    "generator": "obj2gltf",
    "version": "2.0"
  },
  "buffers": [
    {
      "name": "chair_005",
      "byteLength": 589088,
      "uri": "chair_005.bin"
    }
  ],
  "bufferViews": [
    {
      "name": "bufferView_0",
      "buffer": 0,
      "byteLength": 165360,
      "byteOffset": 0,
      "byteStride": 12,
      "target": 34962
    },
    {
      "name": "bufferView_1",
      "buffer": 0,
      "byteLength": 165360,
      "byteOffset": 165360,
      "byteStride": 12,
      "target": 34962
    },
    {
      "name": "bufferView_2",
      "buffer": 0,
      "byteLength": 110240,
      "byteOffset": 330720,
      "byteStride": 8,
      "target": 34962
    },
    {
      "name": "bufferView_3",
      "buffer": 0,
      "byteLength": 148128,
      "byteOffset": 440960,
      "target": 34963
    }
  ],
  "images": [
    {
      "name": "chair_005",
      "uri": "chair_005.png"
    },
    {
      "name": "legs_005",
      "uri": "legs_005.png"
    }
  ],
  "materials": [
    {
      "name": "legs_005_01",
      "pbrMetallicRoughness": {
        "baseColorFactor": [
          0.066667,
          0.066667,
          0.066667,
          1
        ],
        "metallicFactor": 0,
        "roughnessFactor": 0.99
      },
      "emissiveFactor": [
        0,
        0,
        0
      ],
      "alphaMode": "OPAQUE",
      "doubleSided": false
    },
    {
      "name": "chair_005",
      "pbrMetallicRoughness": {
        "baseColorTexture": {
          "index": 0
        },
        "baseColorFactor": [
          1,
          1,
          1,
          1
        ],
        "metallicFactor": 0,
        "roughnessFactor": 0.99
      },
      "emissiveFactor": [
        0,
        0,
        0
      ],
      "alphaMode": "OPAQUE",
      "doubleSided": false
    },
    {
      "name": "legs_005",
      "pbrMetallicRoughness": {
        "baseColorTexture": {
          "index": 1
        },
        "baseColorFactor": [
          1,
          1,
          1,
          1
        ],
        "metallicFactor": 0,
        "roughnessFactor": 0.99
      },
      "emissiveFactor": [
        0,
        0,
        0
      ],
      "alphaMode": "OPAQUE",
      "doubleSided": false
    }
  ],
  "meshes": [
    {
      "name": "legs_004_01_1",
      "primitives": [
        {
          "attributes": {
            "POSITION": 0,
            "NORMAL": 1,
            "TEXCOORD_0": 2
          },
          "indices": 3,
          "material": 0,
          "mode": 4
        }
      ]
    },
    {
      "name": "chair_005_1",
      "primitives": [
        {
          "attributes": {
            "POSITION": 4,
            "NORMAL": 5,
            "TEXCOORD_0": 6
          },
          "indices": 7,
          "material": 1,
          "mode": 4
        }
      ]
    },
    {
      "name": "legs_005_1",
      "primitives": [
        {
          "attributes": {
            "POSITION": 8,
            "NORMAL": 9,
            "TEXCOORD_0": 10
          },
          "indices": 11,
          "material": 2,
          "mode": 4
        }
      ]
    }
  ],
  "nodes": [
    {
      "name": "legs_004_01",
      "mesh": 0
    },
    {
      "name": "chair_005",
      "mesh": 1
    },
    {
      "name": "legs_005",
      "mesh": 2
    }
  ],
  "samplers": [
    {
      "magFilter": 9729,
      "minFilter": 9986,
      "wrapS": 10497,
      "wrapT": 10497
    }
  ],
  "scene": 0,
  "scenes": [
    {
      "nodes": [
        0,
        1,
        2
      ]
    }
  ],
  "textures": [
    {
      "name": "chair_005",
      "sampler": 0,
      "source": 0
    },
    {
      "name": "legs_005",
      "sampler": 0,
      "source": 1
    }
  ]
}
