# 3ds Max Wavefront OBJ Exporter v0.97b - (c)2007 guruware
# File Created: 14.11.2018 13:56:56

newmtl CRN_19___Default
	Ns 100.000000
	Ni 1.500000
	d 0.109000
	Tr 0.891000
	Tf 0.109000 0.109000 0.109000 
	illum 2
	Ka 0.000000 0.000000 0.000000
	Kd 0.068157 0.182784 0.123922
	Ks 1.076250 1.076250 1.076250
	Ke 0.000000 0.000000 0.000000

newmtl CRN_20___Default
	Ns 50.000000
	Ni 1.500000
	d 1.000000
	Tr 0.000000
	Tf 1.000000 1.000000 1.000000 
	illum 2
	Ka 0.000000 0.000000 0.000000
	Kd 0.075000 0.075000 0.075000
	Ks 3.336375 3.336375 3.336375
	Ke 0.000000 0.000000 0.000000

newmtl CRN_22___Default
	Ns 62.000000
	Ni 1.500000
	d 1.000000
	Tr 0.000000
	Tf 1.000000 1.000000 1.000000 
	illum 2
	Ka 0.000000 0.000000 0.000000
	Kd 0.016941 0.016941 0.016941
	Ks 0.325500 0.325500 0.325500
	Ke 0.000000 0.000000 0.000000

newmtl CRN_21___Default
	Ns 100.000000
	Ni 1.500000
	d 1.000000
	Tr 0.000000
	Tf 1.000000 1.000000 1.000000 
	illum 2
	Ka 0.000000 0.000000 0.000000
	Kd 0.000000 0.000000 0.000000
	Ks 10.000000 10.000000 10.000000
	Ke 0.000000 0.000000 0.000000
